Return the cmdstanr summary — get_summary • bbsBayes
…
#> Warning: The ESS has been capped to avoid unstable estimates.
#> Warning: The ESS has been capped to avoid unstable estimates.
#> Warning: The ESS has been capped to avoid unstable estimates.
#> Warning: The ESS has been capped to avoid unstable estimates.
#> Warning: The ESS has been capped to avoid unstable estimates.
#> Warning: The ESS has been capped to avoid unstable estimates.
#> Warning: The ESS has been capped to avoid unstable estimates.
#> Warning: The ESS has been capped to avoid unstable estimates.
#> Warning: The ESS has been capped to avoid unstable estimates.
#> Warning: The ESS has been capped to avoid unstable estimates.
#> Warning: The ESS has been capped to avoid unstable estimates.
#> Warning: The ESS has been capped to avoid unstable estimates.
#> Warning: The ESS has been capped to avoid unstable estimates.
#> Warning: The ESS has been capped to avoid unstable estimates.
#> # A tibble: 10,495 × 10
#>    variable          mean   median     sd    mad       q5      q95  rhat ess_b…¹
#>    <chr>            <dbl>    <dbl>  <dbl>  <dbl>    <dbl>    <dbl> <dbl>   <dbl>
#>  1 lp__          -1.38e+4 -1.38e+4 45.3   32.1   -1.39e+4 -1.37e+4 1.25     8.85
#>  2 strata_raw[1] -8.02e-1 -7.93e-1  0.350  0.312 -1.32e+0 -2.30e-1 0.974   64.1 
#>  3 strata_raw[2] -2.25e-1 -1.92e-1  0.195  0.196 -5.95e-1  2.17e-2 1.10    18.8 
#>  4 strata_raw[3] -1.22e-1 -1.28e-1  0.468  0.423 -7.73e-1  5.85e-1 1.09    64.1 
#>  5 strata_raw[4]  1.50e+0  1.49e+0  0.263  0.259  1.13e+0  1.91e+0 1.04    33.8 
#>  6 strata_raw[5] -1.57e-1 -1.52e-1  0.234  0.264 -5.17e-1  1.86e-1 0.981   64.1 
#>  7 strata_raw[6]  1.37e+0  1.27e+0  0.436  0.405  8.12e-1  2.17e+0 1.09    64.1 
#>  8 strata_raw[7] -9.94e-1 -9.93e-1  0.728  0.757 -2.25e+0 -9.06e-2 1.11    64.1 
#>  9 strata_raw[8]  1.85e+0  1.81e+0  0.296  0.383  1.43e+0  2.39e+0 0.977   64.1 
#> 10 strata_raw[9] -9.15e-1 -8.65e-1  0.292  0.339 -1.44e+0 -5.33e-1 0.985   64.1 
#> # … with 10,485 more rows, 1 more variable: ess_tail <dbl>, and abbreviated
#> #   variable name ¹​ess_bulk
…
