Assessing Model Convergence • bbsBayes
…
Now we can calculate our convergence metrics

conv <- convergence(m)
conv
#> # A tibble: 2,391 × 5
#>    variable_type variable      ess_bulk ess_tail  rhat
#>    <chr>         <chr>            <dbl>    <dbl> <dbl>
#>  1 lp__          lp__              37.4     21.1 1.07 
#>  2 strata_raw    strata_raw[1]     64.1     24.2 0.979
#>  3 strata_raw    strata_raw[2]     25.1     47.8 1.06 
#>  4 strata_raw    strata_raw[3]     64.1     47.8 0.995
#>  5 strata_raw    strata_raw[4]     64.1     35.8 1.04 
#>  6 strata_raw    strata_raw[5]     64.1     17.4 1.07 
#>  7 strata_raw    strata_raw[6]     64.1     44.7 0.993
#>  8 strata_raw    strata_raw[7]     64.1     44.7 0.981
#>  9 strata_raw    strata_raw[8]     64.1     24.2 1.07 
#> 10 strata_raw    strata_raw[9]     32.3     44.7 1.00 
#> # … with 2,381 more rows
…
