Models: GAM Hierarchical • bbsBayes
…
Explore results

Convergence

conv <- get_convergence(m)
conv
#> # A tibble: 8,821 × 5
#>    variable_type variable       rhat ess_bulk ess_tail
#>    <chr>         <chr>         <dbl>    <dbl>    <dbl>
#>  1 lp__          lp__           2.90       10       10
#>  2 strata_raw    strata_raw[1]  1.63       10       10
#>  3 strata_raw    strata_raw[2]  2.15       10       10
#>  4 strata_raw    strata_raw[3]  1.36       10       10
#>  5 strata_raw    strata_raw[4]  1.55       10       10
#>  6 strata_raw    strata_raw[5]  1.65       10       10
#>  7 strata_raw    strata_raw[6]  1.61       10       10
#>  8 strata_raw    strata_raw[7]  1.38       10       10
#>  9 strata_raw    strata_raw[8]  1.86       10       10
#> 10 strata_raw    strata_raw[9]  1.30       10       10
#> # … with 8,811 more rows
…
